ActsPixelClusterizationAlg                                        INFO Clusterization statistics
|----------|------------|
| RDOs     |    3423993 |
| Clusters |    1165578 |
|----------|------------|
ActsStripClusterizationAlg                                        INFO Clusterization statistics
|----------|------------|
| RDOs     |    1345365 |
| Clusters |    1081478 |
|----------|------------|
ActsPixelSpacePointFormationAlg                                   INFO Space Point Formation statistics
|--------------|------------|
| Clusters     |    1165578 |
| Space Points |    1165578 |
|--------------|------------|
ActsStripSpacePointFormationAlg                                   INFO Space Point Formation statistics
|----------------------|------------|
| Clusters             |    1081478 |
| Space Points         |     325456 |
| Overlap Space Points |     101370 |
|----------------------|------------|
ActsPixelSeedingAlg                                               INFO Seed statistics
|-------------|------------|
| Spacepoints |    1165578 |
| Seeds       |     123542 |
|-------------|------------|
ActsStripSeedingAlg                                               INFO Seed statistics
|-------------|------------|
| Spacepoints |     426826 |
| Seeds       |      25844 |
|-------------|------------|
ActsTrackFindingAlg                                               INFO statistics
|-----------------------------------|------------|------------|------------|
|                           All eta | PPP        | SSS        | ALL        |
|-----------------------------------|------------|------------|------------|
| Input seeds                       |     123542 |      25844 |     149386 |
| No track parameters               |          0 |          0 |          0 |
| Used   seeds                      |      78112 |      16386 |      94498 |
| Cannot find track                 |      63305 |      12493 |      75798 |
| Duplicate seeds                   |      45430 |       9458 |      54888 |
| Initial param estimation failed   |          0 |          0 |          0 |
| CKF tracks                        |      14807 |       3893 |      18700 |
| Rejected refined parameters       |          0 |          0 |          0 |
| selected tracks                   |      13386 |        823 |      14209 |
| Stopped tracks reaching max holes |      60891 |      11976 |      72867 |
| Seeds with more than one branch   |          0 |          0 |          0 |
| Tracks failing second CKF         |         11 |        194 |        205 |
| Stopped tracks below pT cut       |       2414 |        517 |       2931 |
| Stopped tracks above max eta      |          0 |          0 |          0 |
| Total shared hits                 |      93990 |      18319 |     112309 |
|-----------------------------------|------------|------------|------------|
ActsTrackFindingAlg                                               INFO Ratios
|------------------------------------------|------------|------------|------------|
|                                          | PPP        | SSS        | ALL        |
|------------------------------------------|------------|------------|------------|
| failed / seeds                           |   0.512417 |     0.4834 |   0.507397 |
| duplication / seeds                      |   0.367729 |   0.365965 |   0.367424 |
| Rejected refined params / seeds          |          0 |          0 |          0 |
| selected / CKF tracks                    |   0.904032 |   0.211405 |    0.75984 |
| selected tracks / used seeds             |   0.171369 |  0.0502258 |   0.150363 |
| branched tracks / used seeds             |          0 |          0 |          0 |
| no 2nd CKF / CKF tracks                  | 0.000742892 |   0.049833 |  0.0109626 |
| shared hits / CKF tracks                 |    6.34767 |    4.70563 |    6.00583 |
|------------------------------------------|------------|------------|------------|
| selected / CKF tracks           0.0- 0.5 |   0.890205 |   0.115681 |   0.708157 |
|                                 0.5- 1.0 |   0.913255 |   0.251407 |   0.734549 |
|                                 1.0- 1.5 |    0.88605 |   0.225086 |   0.696552 |
|                                 1.5- 2.0 |   0.793217 |   0.215283 |   0.546566 |
|                                 2.0- 2.5 |   0.943406 |   0.214008 |   0.698366 |
|                                 2.5- 3.0 |   0.882987 |          0 |   0.882987 |
|                                 3.0- 3.5 |   0.942103 |          0 |   0.942103 |
|                                 3.5-+inf |   0.960328 |          0 |   0.960328 |
|------------------------------------------|------------|------------|------------|
ActsPrdAssociationAlg                                             INFO Prd Map statistics
|-----------------------|------------|
| N. Tracks             |       9547 |
| N. Pixel Measurements |     102074 |
| N. Strip Measurements |      40045 |
| N. Hgtd Measurements  |          0 |
|-----------------------|------------|
ActsLargeRadiusPixelClusterPreparationAlg                         INFO Data Prep statistics
|---------|------------|
| Inputs  |    1165578 |
| Outputs |    1063576 |
|---------|------------|
ActsLargeRadiusStripClusterPreparationAlg                         INFO Data Prep statistics
|---------|------------|
| Inputs  |    1081478 |
| Outputs |    1041468 |
|---------|------------|
ActsLargeRadiusStripSpacePointPreparationAlg                      INFO Data Prep statistics
|---------|------------|
| Inputs  |     325456 |
| Outputs |     303593 |
|---------|------------|
ActsLargeRadiusStripOv...pSpacePointPreparationAlg                INFO Data Prep statistics
|---------|------------|
| Inputs  |     101370 |
| Outputs |      94594 |
|---------|------------|
ActsLargeRadiusStripSeedingAlg                                    INFO Seed statistics
|-------------|------------|
| Spacepoints |     398187 |
| Seeds       |      10171 |
|-------------|------------|
ActsLargeRadiusTrackFindingAlg                                    INFO statistics
|-----------------------------------|------------|------------|
|                           All eta | SSS        | ALL        |
|-----------------------------------|------------|------------|
| Input seeds                       |      10171 |      10171 |
| No track parameters               |          0 |          0 |
| Used   seeds                      |       9952 |       9952 |
| Cannot find track                 |       8988 |       8988 |
| Duplicate seeds                   |        219 |        219 |
| Initial param estimation failed   |          0 |          0 |
| CKF tracks                        |        964 |        964 |
| Rejected refined parameters       |          0 |          0 |
| selected tracks                   |        132 |        132 |
| Stopped tracks reaching max holes |       7015 |       7015 |
| Seeds with more than one branch   |          0 |          0 |
| Tracks failing second CKF         |         30 |         30 |
| Stopped tracks below pT cut       |       1973 |       1973 |
| Stopped tracks above max eta      |          0 |          0 |
| Total shared hits                 |        776 |        776 |
|-----------------------------------|------------|------------|
ActsLargeRadiusTrackFindingAlg                                    INFO Ratios
|------------------------------------------|------------|------------|
|                                          | SSS        | ALL        |
|------------------------------------------|------------|------------|
| failed / seeds                           |   0.883689 |   0.883689 |
| duplication / seeds                      |  0.0215318 |  0.0215318 |
| Rejected refined params / seeds          |          0 |          0 |
| selected / CKF tracks                    |   0.136929 |   0.136929 |
| selected tracks / used seeds             |  0.0132637 |  0.0132637 |
| branched tracks / used seeds             |          0 |          0 |
| no 2nd CKF / CKF tracks                  |  0.0311203 |  0.0311203 |
| shared hits / CKF tracks                 |   0.804979 |   0.804979 |
|------------------------------------------|------------|------------|
| selected / CKF tracks           0.0- 0.5 |   0.169014 |   0.169014 |
|                                 0.5- 1.0 |   0.223529 |   0.223529 |
|                                 1.0- 1.5 |   0.212766 |   0.212766 |
|                                 1.5- 2.0 |    0.13981 |    0.13981 |
|                                 2.0- 2.5 |  0.0753425 |  0.0753425 |
|                                 2.5- 3.0 |          0 |          0 |
|                                 3.0- 3.5 |          0 |          0 |
|                                 3.5-+inf |          0 |          0 |
|------------------------------------------|------------|------------|
ActsLargeRadiusPrdAssociationAlg                                  INFO Prd Map statistics
|-----------------------|------------|
| N. Tracks             |         97 |
| N. Pixel Measurements |        479 |
| N. Strip Measurements |        928 |
| N. Hgtd Measurements  |          0 |
|-----------------------|------------|
ActsConversionPixelClusterPreparationAlg                          INFO Data Prep statistics
|---------|------------|
| Inputs  |    1165578 |
| Outputs |      27113 |
|---------|------------|
ActsConversionStripClusterPreparationAlg                          INFO Data Prep statistics
|---------|------------|
| Inputs  |    1081478 |
| Outputs |      15516 |
|---------|------------|
ActsConversionStripSpacePointPreparationAlg                       INFO Data Prep statistics
|---------|------------|
| Inputs  |     325456 |
| Outputs |       4502 |
|---------|------------|
ActsConversionStripSeedingAlg                                     INFO Seed statistics
|-------------|------------|
| Spacepoints |       4502 |
| Seeds       |         71 |
|-------------|------------|
ActsConversionTrackFindingAlg                                     INFO statistics
|-----------------------------------|------------|------------|
|                           All eta | SSS        | ALL        |
|-----------------------------------|------------|------------|
| Input seeds                       |         71 |         71 |
| No track parameters               |          0 |          0 |
| Used   seeds                      |         71 |         71 |
| Cannot find track                 |         54 |         54 |
| Duplicate seeds                   |          0 |          0 |
| Initial param estimation failed   |          0 |          0 |
| CKF tracks                        |         17 |         17 |
| Rejected refined parameters       |          0 |          0 |
| selected tracks                   |          0 |          0 |
| Stopped tracks reaching max holes |         46 |         46 |
| Seeds with more than one branch   |          0 |          0 |
| Tracks failing second CKF         |          0 |          0 |
| Stopped tracks below pT cut       |          8 |          8 |
| Stopped tracks above max eta      |          0 |          0 |
| Total shared hits                 |          0 |          0 |
|-----------------------------------|------------|------------|
ActsConversionTrackFindingAlg                                     INFO Ratios
|------------------------------------------|------------|------------|
|                                          | SSS        | ALL        |
|------------------------------------------|------------|------------|
| failed / seeds                           |   0.760563 |   0.760563 |
| duplication / seeds                      |          0 |          0 |
| Rejected refined params / seeds          |          0 |          0 |
| selected / CKF tracks                    |          0 |          0 |
| selected tracks / used seeds             |          0 |          0 |
| branched tracks / used seeds             |          0 |          0 |
| no 2nd CKF / CKF tracks                  |          0 |          0 |
| shared hits / CKF tracks                 |          0 |          0 |
|------------------------------------------|------------|------------|
| selected / CKF tracks           0.0- 0.5 |          0 |          0 |
|                                 0.5- 1.0 |          0 |          0 |
|                                 1.0- 1.5 |          0 |          0 |
|                                 1.5- 2.0 |          0 |          0 |
|                                 2.0- 2.5 |          0 |          0 |
|                                 2.5- 3.0 |          0 |          0 |
|                                 3.0- 3.5 |          0 |          0 |
|                                 3.5-+inf |          0 |          0 |
|------------------------------------------|------------|------------|
ActsConversionPrdAssociationAlg                                   INFO Prd Map statistics
|-----------------------|------------|
| N. Tracks             |          0 |
| N. Pixel Measurements |          0 |
| N. Strip Measurements |          0 |
| N. Hgtd Measurements  |          0 |
|-----------------------|------------|
ActsLowPtPixelClusterPreparationAlg                               INFO Data Prep statistics
|---------|------------|
| Inputs  |    1165578 |
| Outputs |    1063098 |
|---------|------------|
ActsLowPtStripClusterPreparationAlg                               INFO Data Prep statistics
|---------|------------|
| Inputs  |    1081478 |
| Outputs |    1040540 |
|---------|------------|
ActsLowPtPixelSpacePointPreparationAlg                            INFO Data Prep statistics
|---------|------------|
| Inputs  |    1165578 |
| Outputs |    1063098 |
|---------|------------|
ActsLowPtStripSpacePointPreparationAlg                            INFO Data Prep statistics
|---------|------------|
| Inputs  |     325456 |
| Outputs |     303102 |
|---------|------------|
ActsLowPtStripOverlapSpacePointPreparationAlg                     INFO Data Prep statistics
|---------|------------|
| Inputs  |     101370 |
| Outputs |      94420 |
|---------|------------|
ActsLowPtPixelSeedingAlg                                          INFO Seed statistics
|-------------|------------|
| Spacepoints |    1063098 |
| Seeds       |      46852 |
|-------------|------------|
ActsLowPtStripSeedingAlg                                          INFO Seed statistics
|-------------|------------|
| Spacepoints |     397522 |
| Seeds       |       9594 |
|-------------|------------|
ActsLowPtTrackFindingAlg                                          INFO statistics
|-----------------------------------|------------|------------|------------|
|                           All eta | PPP        | SSS        | ALL        |
|-----------------------------------|------------|------------|------------|
| Input seeds                       |      46852 |       9594 |      56446 |
| No track parameters               |          0 |          0 |          0 |
| Used   seeds                      |      46043 |       9233 |      55276 |
| Cannot find track                 |      44909 |       7474 |      52383 |
| Duplicate seeds                   |        809 |        361 |       1170 |
| Initial param estimation failed   |          0 |          0 |          0 |
| CKF tracks                        |       1134 |       1759 |       2893 |
| Rejected refined parameters       |          0 |          0 |          0 |
| selected tracks                   |        620 |         44 |        664 |
| Stopped tracks reaching max holes |      44467 |       7432 |      51899 |
| Seeds with more than one branch   |          0 |          0 |          0 |
| Tracks failing second CKF         |          0 |         71 |         71 |
| Stopped tracks below pT cut       |        442 |         42 |        484 |
| Stopped tracks above max eta      |          0 |          0 |          0 |
| Total shared hits                 |       3869 |        459 |       4328 |
|-----------------------------------|------------|------------|------------|
ActsLowPtTrackFindingAlg                                          INFO Ratios
|------------------------------------------|------------|------------|------------|
|                                          | PPP        | SSS        | ALL        |
|------------------------------------------|------------|------------|------------|
| failed / seeds                           |   0.958529 |   0.779029 |    0.92802 |
| duplication / seeds                      |  0.0172671 |  0.0376277 |  0.0207278 |
| Rejected refined params / seeds          |          0 |          0 |          0 |
| selected / CKF tracks                    |   0.546737 |  0.0250142 |    0.22952 |
| selected tracks / used seeds             |  0.0134657 | 0.00476552 |  0.0120124 |
| branched tracks / used seeds             |          0 |          0 |          0 |
| no 2nd CKF / CKF tracks                  |          0 |  0.0403638 |   0.024542 |
| shared hits / CKF tracks                 |    3.41182 |   0.260944 |    1.49602 |
|------------------------------------------|------------|------------|------------|
| selected / CKF tracks           0.0- 0.5 |   0.833333 |          0 |       0.36 |
|                                 0.5- 1.0 |   0.965909 |  0.0215827 |   0.387665 |
|                                 1.0- 1.5 |   0.948905 |  0.0769231 |   0.451411 |
|                                 1.5- 2.0 |   0.923077 |   0.037518 |   0.320236 |
|                                 2.0- 2.5 |  0.0657895 | 0.00165837 | 0.00883652 |
|                                 2.5- 3.0 |  0.0131004 |          0 |  0.0131004 |
|                                 3.0- 3.5 |  0.0210526 |          0 |  0.0210526 |
|                                 3.5-+inf |  0.0657895 |          0 |  0.0657895 |
|------------------------------------------|------------|------------|------------|
ActsLowPtPrdAssociationAlg                                        INFO Prd Map statistics
|-----------------------|------------|
| N. Tracks             |        506 |
| N. Pixel Measurements |       3814 |
| N. Strip Measurements |       4189 |
| N. Hgtd Measurements  |          0 |
|-----------------------|------------|
